%YAML 1.1
%TAG !u! tag:unity3d.com,2011:
--- !u!114 &11400000
MonoBehaviour:
  m_ObjectHideFlags: 0
  m_CorrespondingSourceObject: {fileID: 0}
  m_PrefabInstance: {fileID: 0}
  m_PrefabAsset: {fileID: 0}
  m_GameObject: {fileID: 0}
  m_Enabled: 1
  m_EditorHideFlags: 0
  m_Script: {fileID: 11500000, guid: 58489b38414795b4f8c0b562fcd00542, type: 3}
  m_Name: Disguise
  m_EditorClassIdentifier: 
  _attributeName: Disguise
  _attributeValue: 1
  _attributeDescription: Change your posture, costume, and/or voice in order to seem
    another person or another sort of person.
  _baseStatEnum: 0
