%YAML 1.1
%TAG !u! tag:unity3d.com,2011:
--- !u!114 &11400000
MonoBehaviour:
  m_ObjectHideFlags: 0
  m_CorrespondingSourceObject: {fileID: 0}
  m_PrefabInstance: {fileID: 0}
  m_PrefabAsset: {fileID: 0}
  m_GameObject: {fileID: 0}
  m_Enabled: 1
  m_EditorHideFlags: 0
  m_Script: {fileID: 11500000, guid: 80de0d0759d20d049ad9571a4511ba3c, type: 3}
  m_Name: MainMenuSceneCollection
  m_EditorClassIdentifier: 
  _leveScene: {fileID: 0}
  _levelSceneCollection:
  - {fileID: 102900000, guid: a367cb20f0e61064c96c4a72102d8442, type: 3}
