%YAML 1.1
%TAG !u! tag:unity3d.com,2011:
--- !u!114 &11400000
MonoBehaviour:
  m_ObjectHideFlags: 0
  m_CorrespondingSourceObject: {fileID: 0}
  m_PrefabInstance: {fileID: 0}
  m_PrefabAsset: {fileID: 0}
  m_GameObject: {fileID: 0}
  m_Enabled: 1
  m_EditorHideFlags: 0
  m_Script: {fileID: 11500000, guid: c4f3e69d289a0b042b30067ce05ba361, type: 3}
  m_Name: Hotailer
  m_EditorClassIdentifier: 
  _occupationName: Hotailer
  _occupationImage: {fileID: 0}
  _secondaryAttributes: []
